<svg width="45" height="41" viewBox="0 0 45 41" fill="none" xmlns="http://www.w3.org/2000/svg">
<g clip-path="url(#clip0_1649_5676)">
<path d="M0 8.5C0 6.29063 1.79063 4.5 4 4.5H14V12.5C14 13.6063 14.8937 14.5 16 14.5H24V32.5C24 34.7062 22.2062 36.5 20 36.5H4C1.79063 36.5 0 34.7062 0 32.5V8.5ZM16 12.5V4.5L24 12.5H16Z" fill="url(#paint0_linear_1649_5676)"/>
</g>
<path d="M34 14.1189H39.382V26.7189H36.538V16.5309H34V14.1189Z" fill="#073850"/>
<path d="M43.3434 24.0189C43.7514 24.0189 44.0814 24.1509 44.3334 24.4149C44.5974 24.6789 44.7294 25.0209 44.7294 25.4409C44.7294 25.8609 44.5974 26.2089 44.3334 26.4849C44.0814 26.7489 43.7514 26.8809 43.3434 26.8809C42.9474 26.8809 42.6174 26.7429 42.3534 26.4669C42.0894 26.1909 41.9574 25.8489 41.9574 25.4409C41.9574 25.0209 42.0894 24.6789 42.3534 24.4149C42.6174 24.1509 42.9474 24.0189 43.3434 24.0189Z" fill="#073850"/>
<defs>
<linearGradient id="paint0_linear_1649_5676" x1="12" y1="4.5" x2="12" y2="36.5" gradientUnits="userSpaceOnUse">
<stop stop-color="#073850"/>
<stop offset="1" stop-color="#03B6C1"/>
</linearGradient>
<clipPath id="clip0_1649_5676">
<rect width="24" height="32" fill="white" transform="translate(0 4.5)"/>
</clipPath>
</defs>
</svg>
