<svg width="48" height="48" viewBox="0 0 48 48" fill="none" xmlns="http://www.w3.org/2000/svg">
<path d="M24.0002 24L4.57861 9.88578C9.24447 3.47023 16.0391 0 24.0002 0V24Z" fill="#AEB4B4"/>
<path d="M24 24V0C37.2394 0 48 10.7315 48 24C48 37.2685 37.2685 48 24 48C10.7315 48 0 37.2394 0 24C0 18.6926 1.45808 14.1725 4.57837 9.88578L24 24Z" fill="#FDE0CB"/>
</svg>
