<svg width="40" height="41" viewBox="0 0 40 41" fill="none" xmlns="http://www.w3.org/2000/svg">
<rect y="0.994141" width="40" height="40" rx="20" fill="url(#paint0_linear_2406_7455)"/>
<path d="M28.3223 11.9941H23.8073C22.9484 11.9941 22.5181 13.0307 23.1256 13.637L24.3129 14.8223L22.0414 17.0898C20.8372 16.2614 19.4334 15.8468 18.0316 15.8468C16.1073 15.8467 14.1838 16.6263 12.7747 18.1881C10.3343 20.8951 10.423 25.2052 12.9651 27.8156C14.3907 29.2804 16.2328 29.9941 18.0733 29.9941C19.8825 29.9941 21.6957 29.3053 23.0775 27.9271C25.5279 25.4815 25.7949 21.6878 23.8963 18.9411L26.1678 16.6736L27.3552 17.8589C27.5524 18.053 27.793 18.1412 28.0296 18.1412C28.5228 18.1412 29 17.7562 29 17.1788V12.6357C29 12.3173 28.7113 11.9941 28.3223 11.9941ZM20.7999 25.6595C20.0481 26.4098 19.0605 26.7851 18.0733 26.7851C17.0856 26.7851 16.0984 26.41 15.3462 25.6595C13.8425 24.1587 13.8425 21.7167 15.3462 20.2142C16.098 19.464 17.0856 19.0887 18.0733 19.0887C19.0609 19.0887 20.0481 19.4639 20.7999 20.2142C22.3036 21.7139 22.3036 24.1599 20.7999 25.6595Z" fill="white"/>
<defs>
<linearGradient id="paint0_linear_2406_7455" x1="20" y1="0.994141" x2="20" y2="40.9941" gradientUnits="userSpaceOnUse">
<stop stop-color="#03B6C1"/>
<stop offset="1" stop-color="#073850"/>
</linearGradient>
</defs>
</svg>
